[{"page":1,"pages":2,"per_page":50,"total":66,"sourceid":"2","lastupdated":"2026-02-24"},[{"indicator":{"id":"FP.CPI.TOTL","value":"Consumer price index (2010 = 100)"},"country":{"id":"KE","value":"Kenya"},"countryiso3code":"KEN","date":"2025","value":null,"unit":"","obs_status":"","decimal":1},{"indicator":{"id":"FP.CPI.TOTL","value":"Consumer price index (2010 = 100)"},"country":{"id":"KE","value":"Kenya"},"countryiso3code":"KEN","date":"2024","value":257.35339300785,"unit":"","obs_status":"","decimal":1},{"indicator":{"id":"FP.CPI.TOTL","value":"Consumer price index (2010 = 100)"},"country":{"id":"KE","value":"Kenya"},"countryiso3code":"KEN","date":"2023","value":246.295256788022,"unit":"","obs_status":"","decimal":1},{"indicator":{"id":"FP.CPI.TOTL","value":"Consumer price index (2010 = 100)"},"country":{"id":"KE","value":"Kenya"},"countryiso3code":"KEN","date":"2022","value":228.747155845931,"unit":"","obs_status":"","decimal":1},{"indicator":{"id":"FP.CPI.TOTL","value":"Consumer price index (2010 = 100)"},"country":{"id":"KE","value":"Kenya"},"countryiso3code":"KEN","date":"2021","value":212.472085832078,"unit":"","obs_status":"","decimal":1},{"indicator":{"id":"FP.CPI.TOTL","value":"Consumer price index (2010 = 100)"},"country":{"id":"KE","value":"Kenya"},"countryiso3code":"KEN","date":"2020","value":200.241465217838,"unit":"","obs_status":"","decimal":1},{"indicator":{"id":"FP.CPI.TOTL","value":"Consumer price index (2010 = 100)"},"country":{"id":"KE","value":"Kenya"},"countryiso3code":"KEN","date":"2019","value":189.973110678512,"unit":"","obs_status":"","decimal":1},{"indicator":{"id":"FP.CPI.TOTL","value":"Consumer price index (2010 = 100)"},"country":{"id":"KE","value":"Kenya"},"countryiso3code":"KEN","date":"2018","value":180.514789261214,"unit":"","obs_status":"","decimal":1},{"indicator":{"id":"FP.CPI.TOTL","value":"Consumer price index (2010 = 100)"},"country":{"id":"KE","value":"Kenya"},"countryiso3code":"KEN","date":"2017","value":172.428238576216,"unit":"","obs_status":"","decimal":1},{"indicator":{"id":"FP.CPI.TOTL","value":"Consumer price index (2010 = 100)"},"country":{"id":"KE","value":"Kenya"},"countryiso3code":"KEN","date":"2016","value":159.647425011301,"unit":"","obs_status":"","decimal":1},{"indicator":{"id":"FP.CPI.TOTL","value":"Consumer price index (2010 = 100)"},"country":{"id":"KE","value":"Kenya"},"countryiso3code":"KEN","date":"2015","value":150.189610460249,"unit":"","obs_status":"","decimal":1},{"indicator":{"id":"FP.CPI.TOTL","value":"Consumer price index (2010 = 100)"},"country":{"id":"KE","value":"Kenya"},"countryiso3code":"KEN","date":"2014","value":140.914406784821,"unit":"","obs_status":"","decimal":1},{"indicator":{"id":"FP.CPI.TOTL","value":"Consumer price index (2010 = 100)"},"country":{"id":"KE","value":"Kenya"},"countryiso3code":"KEN","date":"2013","value":131.845845200422,"unit":"","obs_status":"","decimal":1},{"indicator":{"id":"FP.CPI.TOTL","value":"Consumer price index (2010 = 100)"},"country":{"id":"KE","value":"Kenya"},"countryiso3code":"KEN","date":"2012","value":124.715258324443,"unit":"","obs_status":"","decimal":1},{"indicator":{"id":"FP.CPI.TOTL","value":"Consumer price index (2010 = 100)"},"country":{"id":"KE","value":"Kenya"},"countryiso3code":"KEN","date":"2011","value":114.02249130147,"unit":"","obs_status":"","decimal":1},{"indicator":{"id":"FP.CPI.TOTL","value":"Consumer price index (2010 = 100)"},"country":{"id":"KE","value":"Kenya"},"countryiso3code":"KEN","date":"2010","value":100,"unit":"","obs_status":"","decimal":1},{"indicator":{"id":"FP.CPI.TOTL","value":"Consumer price index (2010 = 100)"},"country":{"id":"KE","value":"Kenya"},"countryiso3code":"KEN","date":"2009","value":96.1895575526589,"unit":"","obs_status":"","decimal":1},{"indicator":{"id":"FP.CPI.TOTL","value":"Consumer price index (2010 = 100)"},"country":{"id":"KE","value":"Kenya"},"countryiso3code":"KEN","date":"2008","value":88.0581564955536,"unit":"","obs_status":"","decimal":1},{"indicator":{"id":"FP.CPI.TOTL","value":"Consumer price index (2010 = 100)"},"country":{"id":"KE","value":"Kenya"},"countryiso3code":"KEN","date":"2007","value":69.7546612757899,"unit":"","obs_status":"","decimal":1},{"indicator":{"id":"FP.CPI.TOTL","value":"Consumer price index (2010 = 100)"},"country":{"id":"KE","value":"Kenya"},"countryiso3code":"KEN","date":"2006","value":63.5526356768982,"unit":"","obs_status":"","decimal":1},{"indicator":{"id":"FP.CPI.TOTL","value":"Consumer price index (2010 = 100)"},"country":{"id":"KE","value":"Kenya"},"countryiso3code":"KEN","date":"2005","value":55.5269219624651,"unit":"","obs_status":"","decimal":1},{"indicator":{"id":"FP.CPI.TOTL","value":"Consumer price index (2010 = 100)"},"country":{"id":"KE","value":"Kenya"},"countryiso3code":"KEN","date":"2004","value":50.3358928940492,"unit":"","obs_status":"","decimal":1},{"indicator":{"id":"FP.CPI.TOTL","value":"Consumer price index (2010 = 100)"},"country":{"id":"KE","value":"Kenya"},"countryiso3code":"KEN","date":"2003","value":45.0941346535517,"unit":"","obs_status":"","decimal":1},{"indicator":{"id":"FP.CPI.TOTL","value":"Consumer price index (2010 = 100)"},"country":{"id":"KE","value":"Kenya"},"countryiso3code":"KEN","date":"2002","value":41.0634713445186,"unit":"","obs_status":"","decimal":1},{"indicator":{"id":"FP.CPI.TOTL","value":"Consumer price index (2010 = 100)"},"country":{"id":"KE","value":"Kenya"},"countryiso3code":"KEN","date":"2001","value":40.2735822660957,"unit":"","obs_status":"","decimal":1},{"indicator":{"id":"FP.CPI.TOTL","value":"Consumer price index (2010 = 100)"},"country":{"id":"KE","value":"Kenya"},"countryiso3code":"KEN","date":"2000","value":38.0878723316079,"unit":"","obs_status":"","decimal":1},{"indicator":{"id":"FP.CPI.TOTL","value":"Consumer price index (2010 = 100)"},"country":{"id":"KE","value":"Kenya"},"countryiso3code":"KEN","date":"1999","value":34.6316272236208,"unit":"","obs_status":"","decimal":1},{"indicator":{"id":"FP.CPI.TOTL","value":"Consumer price index (2010 = 100)"},"country":{"id":"KE","value":"Kenya"},"countryiso3code":"KEN","date":"1998","value":32.7510609454423,"unit":"","obs_status":"","decimal":1},{"indicator":{"id":"FP.CPI.TOTL","value":"Consumer price index (2010 = 100)"},"country":{"id":"KE","value":"Kenya"},"countryiso3code":"KEN","date":"1997","value":30.6880746141217,"unit":"","obs_status":"","decimal":1},{"indicator":{"id":"FP.CPI.TOTL","value":"Consumer price index (2010 = 100)"},"country":{"id":"KE","value":"Kenya"},"countryiso3code":"KEN","date":"1996","value":27.5570816918342,"unit":"","obs_status":"","decimal":1},{"indicator":{"id":"FP.CPI.TOTL","value":"Consumer price index (2010 = 100)"},"country":{"id":"KE","value":"Kenya"},"countryiso3code":"KEN","date":"1995","value":25.3132895760085,"unit":"","obs_status":"","decimal":1},{"indicator":{"id":"FP.CPI.TOTL","value":"Consumer price index (2010 = 100)"},"country":{"id":"KE","value":"Kenya"},"countryiso3code":"KEN","date":"1994","value":24.9258599160737,"unit":"","obs_status":"","decimal":1},{"indicator":{"id":"FP.CPI.TOTL","value":"Consumer price index (2010 = 100)"},"country":{"id":"KE","value":"Kenya"},"countryiso3code":"KEN","date":"1993","value":19.3502139211618,"unit":"","obs_status":"","decimal":1},{"indicator":{"id":"FP.CPI.TOTL","value":"Consumer price index (2010 = 100)"},"country":{"id":"KE","value":"Kenya"},"countryiso3code":"KEN","date":"1992","value":13.2554885668121,"unit":"","obs_status":"","decimal":1},{"indicator":{"id":"FP.CPI.TOTL","value":"Consumer price index (2010 = 100)"},"country":{"id":"KE","value":"Kenya"},"countryiso3code":"KEN","date":"1991","value":10.410148766435,"unit":"","obs_status":"","decimal":1},{"indicator":{"id":"FP.CPI.TOTL","value":"Consumer price index (2010 = 100)"},"country":{"id":"KE","value":"Kenya"},"countryiso3code":"KEN","date":"1990","value":8.66901985684995,"unit":"","obs_status":"","decimal":1},{"indicator":{"id":"FP.CPI.TOTL","value":"Consumer price index (2010 = 100)"},"country":{"id":"KE","value":"Kenya"},"countryiso3code":"KEN","date":"1989","value":7.36023629692681,"unit":"","obs_status":"","decimal":1},{"indicator":{"id":"FP.CPI.TOTL","value":"Consumer price index (2010 = 100)"},"country":{"id":"KE","value":"Kenya"},"countryiso3code":"KEN","date":"1988","value":6.46830165880087,"unit":"","obs_status":"","decimal":1},{"indicator":{"id":"FP.CPI.TOTL","value":"Consumer price index (2010 = 100)"},"country":{"id":"KE","value":"Kenya"},"countryiso3code":"KEN","date":"1987","value":5.76163879021291,"unit":"","obs_status":"","decimal":1},{"indicator":{"id":"FP.CPI.TOTL","value":"Consumer price index (2010 = 100)"},"country":{"id":"KE","value":"Kenya"},"countryiso3code":"KEN","date":"1986","value":5.30353662872248,"unit":"","obs_status":"","decimal":1},{"indicator":{"id":"FP.CPI.TOTL","value":"Consumer price index (2010 = 100)"},"country":{"id":"KE","value":"Kenya"},"countryiso3code":"KEN","date":"1985","value":5.17245240927544,"unit":"","obs_status":"","decimal":1},{"indicator":{"id":"FP.CPI.TOTL","value":"Consumer price index (2010 = 100)"},"country":{"id":"KE","value":"Kenya"},"countryiso3code":"KEN","date":"1984","value":4.57712553619702,"unit":"","obs_status":"","decimal":1},{"indicator":{"id":"FP.CPI.TOTL","value":"Consumer price index (2010 = 100)"},"country":{"id":"KE","value":"Kenya"},"countryiso3code":"KEN","date":"1983","value":4.15030417835139,"unit":"","obs_status":"","decimal":1},{"indicator":{"id":"FP.CPI.TOTL","value":"Consumer price index (2010 = 100)"},"country":{"id":"KE","value":"Kenya"},"countryiso3code":"KEN","date":"1982","value":3.7256613878531,"unit":"","obs_status":"","decimal":1},{"indicator":{"id":"FP.CPI.TOTL","value":"Consumer price index (2010 = 100)"},"country":{"id":"KE","value":"Kenya"},"countryiso3code":"KEN","date":"1981","value":3.08756345787389,"unit":"","obs_status":"","decimal":1},{"indicator":{"id":"FP.CPI.TOTL","value":"Consumer price index (2010 = 100)"},"country":{"id":"KE","value":"Kenya"},"countryiso3code":"KEN","date":"1980","value":2.7665582283275,"unit":"","obs_status":"","decimal":1},{"indicator":{"id":"FP.CPI.TOTL","value":"Consumer price index (2010 = 100)"},"country":{"id":"KE","value":"Kenya"},"countryiso3code":"KEN","date":"1979","value":2.42982822397404,"unit":"","obs_status":"","decimal":1},{"indicator":{"id":"FP.CPI.TOTL","value":"Consumer price index (2010 = 100)"},"country":{"id":"KE","value":"Kenya"},"countryiso3code":"KEN","date":"1978","value":2.25027115374464,"unit":"","obs_status":"","decimal":1},{"indicator":{"id":"FP.CPI.TOTL","value":"Consumer price index (2010 = 100)"},"country":{"id":"KE","value":"Kenya"},"countryiso3code":"KEN","date":"1977","value":1.92443072912827,"unit":"","obs_status":"","decimal":1},{"indicator":{"id":"FP.CPI.TOTL","value":"Consumer price index (2010 = 100)"},"country":{"id":"KE","value":"Kenya"},"countryiso3code":"KEN","date":"1976","value":1.67602731592778,"unit":"","obs_status":"","decimal":1}]]
